<?xml version="1.0" encoding="utf-8"?>
<!-- Generator: Adobe Illustrator 22.1.0, SVG Export Plug-In . SVG Version: 6.00 Build 0)  -->
<svg version="1.1" id="Layer_1" xmlns="http://www.w3.org/2000/svg" xmlns:xlink="http://www.w3.org/1999/xlink" x="0px" y="0px"
	 viewBox="0 0 141.7 141.7" style="enable-background:new 0 0 141.7 141.7;" xml:space="preserve">
<style type="text/css">
	.st0{fill:none;stroke:#000000;stroke-miterlimit:10;}
</style>
<path class="st0" d="M82.2,69.3L82.2,69.3c-3.8-0.5-7.8-0.8-11.8-0.8c-4,0-8,0.3-11.9,0.9l0,0c-1.3,0.2-2.3,1.4-2.3,2.8
	c0,1.6,1.3,2.8,2.8,2.8c0.1,0,0.3,0,0.4,0l0,0c3.6-0.5,7.2-0.8,10.9-0.8c3.7,0,7.4,0.3,10.9,0.8l0,0c0.1,0,0.3,0,0.4,0
	c1.6,0,2.8-1.3,2.8-2.8C84.6,70.7,83.5,69.5,82.2,69.3z"/>
</svg>
