(module 2-smd-pad (layer F.Cu) (tedit 5DF1A389)
  (fp_text reference REF** (at 0.5 0.5) (layer F.SilkS) hide
    (effects (font (size 1 1) (thickness 0.15)))
  )
  (fp_text value 2-smd-pad (at 0 -0.5) (layer F.Fab) hide
    (effects (font (size 1 1) (thickness 0.15)))
  )
  (pad 1 smd rect (at -1.5 0) (size 1.2 3) (layers F.Cu F.Paste F.Mask))
  (pad 2 smd rect (at 1.5 0) (size 1.2 3) (layers F.Cu F.Paste F.Mask))
)
