(module ALS-PT19 (layer F.Cu) (tedit 5DF2B381)
  (descr " ALS-PT19 Phototransistor")
  (attr smd)
  (fp_text reference REF** (at 0 1.9) (layer F.SilkS)
    (effects (font (size 1 1) (thickness 0.15)))
  )
  (fp_text value ALS-PT19 (at 0 -1.9) (layer F.Fab)
    (effects (font (size 1 1) (thickness 0.15)))
  )
  (fp_line (start -1 -0.9) (end 1.65 -0.9) (layer F.SilkS) (width 0.12))
  (fp_line (start 1.65 -0.9) (end 1.65 0.9) (layer F.SilkS) (width 0.12))
  (fp_line (start 1.65 0.9) (end -0.85 0.9) (layer F.SilkS) (width 0.12))
  (fp_line (start -1.4 -0.65) (end 1.4 -0.65) (layer F.CrtYd) (width 0.05))
  (fp_line (start 1.4 -0.65) (end 1.4 0.65) (layer F.CrtYd) (width 0.05))
  (fp_line (start 1.4 0.65) (end -1.4 0.65) (layer F.CrtYd) (width 0.05))
  (fp_line (start -1.4 0.65) (end -1.4 -0.65) (layer F.CrtYd) (width 0.05))
  (pad 2 smd rect (at -0.75 0) (size 0.8 0.8) (layers F.Cu F.Paste F.Mask))
  (pad 1 smd rect (at 0.75 0) (size 0.8 0.8) (layers F.Cu F.Paste F.Mask))
)
