(module expansion-port-4 (layer F.Cu) (tedit 5DF2A5DE)
  (fp_text reference J16 (at 0 0.5 -180) (layer F.SilkS)
    (effects (font (size 1 1) (thickness 0.15)))
  )
  (fp_text value "sew -" (at 0 -0.5 -180) (layer F.Fab)
    (effects (font (size 1 1) (thickness 0.15)))
  )
  (pad 1 thru_hole circle (at -14 0) (size 7 7) (drill 4) (layers *.Cu *.Mask)
    (zone_connect 0))
  (pad 1 thru_hole circle (at -6 0) (size 7 7) (drill 4) (layers *.Cu *.Mask)
    (zone_connect 0))
  (pad 1 thru_hole circle (at -20 0) (size 7 7) (drill 4) (layers *.Cu *.Mask)
    (zone_connect 0))
  (pad 1 thru_hole custom (at 0 0) (size 7 7) (drill 4) (layers *.Cu *.Mask)
    (zone_connect 0)
    (options (clearance outline) (anchor circle))
    (primitives
      (gr_poly (pts
         (xy -23.5 0) (xy -19 0) (xy -19 3.5) (xy -23.5 3.5)) (width 0))
      (gr_poly (pts
         (xy 0 3.5) (xy -20.005875 3.5) (xy -20 -3.5) (xy 0 -3.5)) (width 0))
    ))
)
