(module JS202011SCQN (layer F.Cu) (tedit 5DF1A56E)
  (descr "C&K slider switch DPDT")
  (tags "slider, switch ,DPDT")
  (attr smd)
  (fp_text reference REF** (at 0 0.5) (layer F.SilkS)
    (effects (font (size 1 1) (thickness 0.15)))
  )
  (fp_text value JS202011SCQN (at 0 -0.5) (layer F.Fab)
    (effects (font (size 1 1) (thickness 0.15)))
  )
  (fp_line (start 3.81 -1.8) (end 4.5 -1.8) (layer F.SilkS) (width 0.12))
  (fp_line (start 4.5 -1.8) (end 4.5 1.8) (layer F.SilkS) (width 0.12))
  (fp_line (start -3.81 1.8) (end -4.5 1.8) (layer F.SilkS) (width 0.12))
  (fp_line (start -4.5 1.8) (end -4.5 -1.8) (layer F.SilkS) (width 0.12))
  (fp_line (start -4.5 -1.8) (end -3.81 -1.8) (layer F.SilkS) (width 0.12))
  (fp_line (start 4.5 1.8) (end 3.81 1.8) (layer F.SilkS) (width 0.12))
  (fp_line (start -5.08 -4.445) (end 5.08 -4.445) (layer F.CrtYd) (width 0.12))
  (fp_line (start 5.08 -4.445) (end 5.08 4.445) (layer F.CrtYd) (width 0.12))
  (fp_line (start 5.08 4.445) (end -5.08 4.445) (layer F.CrtYd) (width 0.12))
  (fp_line (start -5.08 4.445) (end -5.08 -4.445) (layer F.CrtYd) (width 0.12))
  (pad 1 smd rect (at -2.5 -2.75) (size 1.2 2.5) (layers F.Cu F.Paste F.Mask))
  (pad 2 smd rect (at 0 -2.75) (size 1.2 2.5) (layers F.Cu F.Paste F.Mask))
  (pad 3 smd rect (at 2.5 -2.75) (size 1.2 2.5) (layers F.Cu F.Paste F.Mask))
  (pad 3 smd rect (at 2.5 2.75) (size 1.2 2.5) (layers F.Cu F.Paste F.Mask))
  (pad 2 smd rect (at 0 2.75) (size 1.2 2.5) (layers F.Cu F.Paste F.Mask))
  (pad 1 smd rect (at -2.5 2.75) (size 1.2 2.5) (layers F.Cu F.Paste F.Mask))
)
