(module sewable_20mm_6pin (layer F.Cu) (tedit 5DE636E8)
  (fp_text reference REF** (at 0 -11.045) (layer F.SilkS) hide
    (effects (font (size 1 1) (thickness 0.15)))
  )
  (fp_text value Sewable_20mm_6pin (at 0 11.045) (layer F.Fab) hide
    (effects (font (size 1 1) (thickness 0.15)))
  )
  (fp_circle (center 0 0) (end 0 10.12) (layer F.SilkS) (width 0.12))
  (pad 6 thru_hole oval (at -6.928203 -4 60) (size 4 4) (drill 2) (layers *.Cu *.Mask))
  (pad 5 thru_hole oval (at -6.928203 4 120) (size 4 4) (drill 2) (layers *.Cu *.Mask))
  (pad 4 thru_hole oval (at 0 8 180) (size 4 4) (drill 2) (layers *.Cu *.Mask))
  (pad 3 thru_hole oval (at 6.928203 3.999999 240) (size 4 4) (drill 2) (layers *.Cu *.Mask))
  (pad 2 thru_hole oval (at 6.928203 -4 300) (size 4 4) (drill 2) (layers *.Cu *.Mask))
  (pad 1 thru_hole oval (at 0 -8) (size 4 4) (drill 2) (layers *.Cu *.Mask))
)
